simulation/qsim/LW9.msim.vcd
$comment
	File created using the following command:
		vcd file LW9.msim.vcd -direction
$end
$date
	Tue Oct 31 23:24:14 2017
$end
$version
	ModelSim Version 10.5b
$end
$timescale
	1ps
$end

$scope module rca8_vhd_vec_tst $end
$var wire 1 ! A [7] $end
$var wire 1 " A [6] $end
$var wire 1 # A [5] $end
$var wire 1 $ A [4] $end
$var wire 1 % A [3] $end
$var wire 1 & A [2] $end
$var wire 1 ' A [1] $end
$var wire 1 ( A [0] $end
$var wire 1 ) B [7] $end
$var wire 1 * B [6] $end
$var wire 1 + B [5] $end
$var wire 1 , B [4] $end
$var wire 1 - B [3] $end
$var wire 1 . B [2] $end
$var wire 1 / B [1] $end
$var wire 1 0 B [0] $end
$var wire 1 1 Cout $end
$var wire 1 2 S [7] $end
$var wire 1 3 S [6] $end
$var wire 1 4 S [5] $end
$var wire 1 5 S [4] $end
$var wire 1 6 S [3] $end
$var wire 1 7 S [2] $end
$var wire 1 8 S [1] $end
$var wire 1 9 S [0] $end
$var wire 1 : Sel $end

$scope module i1 $end
$var wire 1 ; gnd $end
$var wire 1 < vcc $end
$var wire 1 = unknown $end
$var wire 1 > devoe $end
$var wire 1 ? devclrn $end
$var wire 1 @ devpor $end
$var wire 1 A ww_devoe $end
$var wire 1 B ww_devclrn $end
$var wire 1 C ww_devpor $end
$var wire 1 D ww_A [7] $end
$var wire 1 E ww_A [6] $end
$var wire 1 F ww_A [5] $end
$var wire 1 G ww_A [4] $end
$var wire 1 H ww_A [3] $end
$var wire 1 I ww_A [2] $end
$var wire 1 J ww_A [1] $end
$var wire 1 K ww_A [0] $end
$var wire 1 L ww_B [7] $end
$var wire 1 M ww_B [6] $end
$var wire 1 N ww_B [5] $end
$var wire 1 O ww_B [4] $end
$var wire 1 P ww_B [3] $end
$var wire 1 Q ww_B [2] $end
$var wire 1 R ww_B [1] $end
$var wire 1 S ww_B [0] $end
$var wire 1 T ww_Sel $end
$var wire 1 U ww_S [7] $end
$var wire 1 V ww_S [6] $end
$var wire 1 W ww_S [5] $end
$var wire 1 X ww_S [4] $end
$var wire 1 Y ww_S [3] $end
$var wire 1 Z ww_S [2] $end
$var wire 1 [ ww_S [1] $end
$var wire 1 \ ww_S [0] $end
$var wire 1 ] ww_Cout $end
$var wire 1 ^ \S[0]~output_o\ $end
$var wire 1 _ \S[1]~output_o\ $end
$var wire 1 ` \S[2]~output_o\ $end
$var wire 1 a \S[3]~output_o\ $end
$var wire 1 b \S[4]~output_o\ $end
$var wire 1 c \S[5]~output_o\ $end
$var wire 1 d \S[6]~output_o\ $end
$var wire 1 e \S[7]~output_o\ $end
$var wire 1 f \Cout~output_o\ $end
$var wire 1 g \A[0]~input_o\ $end
$var wire 1 h \B[0]~input_o\ $end
$var wire 1 i \GEN_ADD_SUB:0:LOWERBITS:FA1|Sf~0_combout\ $end
$var wire 1 j \A[1]~input_o\ $end
$var wire 1 k \B[1]~input_o\ $end
$var wire 1 l \Sel~input_o\ $end
$var wire 1 m \GEN_ADD_SUB:0:LOWERBITS:FA1|Coutf~0_combout\ $end
$var wire 1 n \GEN_ADD_SUB:0:LOWERBITS:FA1|Coutf~1_combout\ $end
$var wire 1 o \GEN_ADD_SUB:1:UPPERBITS:FAN|Sf~combout\ $end
$var wire 1 p \A[2]~input_o\ $end
$var wire 1 q \B[2]~input_o\ $end
$var wire 1 r \GEN_ADD_SUB:1:UPPERBITS:FAN|Coutf~0_combout\ $end
$var wire 1 s \GEN_ADD_SUB:2:UPPERBITS:FAN|Sf~0_combout\ $end
$var wire 1 t \A[3]~input_o\ $end
$var wire 1 u \B[3]~input_o\ $end
$var wire 1 v \GEN_ADD_SUB:2:UPPERBITS:FAN|Coutf~0_combout\ $end
$var wire 1 w \GEN_ADD_SUB:3:UPPERBITS:FAN|Sf~0_combout\ $end
$var wire 1 x \A[4]~input_o\ $end
$var wire 1 y \B[4]~input_o\ $end
$var wire 1 z \GEN_ADD_SUB:3:UPPERBITS:FAN|Coutf~0_combout\ $end
$var wire 1 { \GEN_ADD_SUB:4:UPPERBITS:FAN|Sf~0_combout\ $end
$var wire 1 | \A[5]~input_o\ $end
$var wire 1 } \B[5]~input_o\ $end
$var wire 1 ~ \GEN_ADD_SUB:4:UPPERBITS:FAN|Coutf~0_combout\ $end
$var wire 1 !! \GEN_ADD_SUB:5:UPPERBITS:FAN|Sf~0_combout\ $end
$var wire 1 "! \A[6]~input_o\ $end
$var wire 1 #! \B[6]~input_o\ $end
$var wire 1 $! \GEN_ADD_SUB:5:UPPERBITS:FAN|Coutf~0_combout\ $end
$var wire 1 %! \GEN_ADD_SUB:6:UPPERBITS:FAN|Sf~0_combout\ $end
$var wire 1 &! \A[7]~input_o\ $end
$var wire 1 '! \B[7]~input_o\ $end
$var wire 1 (! \GEN_ADD_SUB:6:UPPERBITS:FAN|Coutf~0_combout\ $end
$var wire 1 )! \GEN_ADD_SUB:7:UPPERBITS:FAN|Sf~0_combout\ $end
$var wire 1 *! \GEN_ADD_SUB:7:UPPERBITS:FAN|Coutf~0_combout\ $end
$var wire 1 +! Bee [7] $end
$var wire 1 ,! Bee [6] $end
$var wire 1 -! Bee [5] $end
$var wire 1 .! Bee [4] $end
$var wire 1 /! Bee [3] $end
$var wire 1 0! Bee [2] $end
$var wire 1 1! Bee [1] $end
$var wire 1 2! Bee [0] $end
$upscope $end
$upscope $end
$enddefinitions $end
#0
$dumpvars
01
0:
0;
1<
x=
1>
1?
1@
1A
1B
1C
0T
0]
0^
0_
0`
0a
0b
0c
0d
0e
0f
0g
0h
0i
0j
0k
0l
0m
0n
0o
0p
0q
0r
0s
0t
0u
0v
0w
0x
0y
0z
0{
0|
0}
0~
0!!
0"!
0#!
0$!
0%!
0&!
0'!
0(!
0)!
0*!
0!
0"
0#
0$
0%
0&
0'
0(
0)
0*
0+
0,
0-
0.
0/
00
0D
0E
0F
0G
0H
0I
0J
0K
0L
0M
0N
0O
0P
0Q
0R
0S
0U
0V
0W
0X
0Y
0Z
0[
0\
x+!
x,!
x-!
x.!
x/!
x0!
01!
x2!
02
03
04
05
06
07
08
09
$end
#2500
1:
1T
1l
11!
1m
1s
1w
1{
1!!
1%!
1)!
1e
1d
1c
1b
1a
1`
1r
1U
1V
1W
1X
1Y
1Z
0s
1v
17
16
15
14
13
12
0`
0w
1z
0Z
0a
0{
1~
07
0Y
0b
0!!
1$!
06
0X
0c
0%!
1(!
05
0W
0d
0)!
1*!
04
0V
1f
0e
03
1]
0U
11
02
#5000
0:
1(
10
0T
1K
1S
1h
1g
0l
01!
1s
0v
1w
0z
1{
0~
1!!
0$!
1%!
0(!
1)!
0*!
0m
1n
0f
1e
1d
1c
1b
1a
1`
0)!
0%!
0!!
0{
0w
1o
0r
0]
1U
1V
1W
1X
1Y
1Z
1_
0a
0b
0c
0d
0e
0s
01
17
16
15
14
13
12
1[
0Y
0X
0W
0V
0U
0`
18
06
05
04
03
02
0Z
07
#7500
1:
1T
1l
11!
1s
1w
1{
1!!
1%!
1)!
1e
1d
1c
1b
1a
1`
0o
1r
1U
1V
1W
1X
1Y
1Z
0_
0s
1v
17
16
15
14
13
12
0[
0`
0w
1z
08
0Z
0a
0{
1~
07
0Y
0b
0!!
1$!
06
0X
0c
0%!
1(!
05
0W
0d
0)!
1*!
04
0V
1f
0e
03
1]
0U
11
02
#10000
0:
0(
00
1'
1/
0T
0K
1J
0S
1R
1k
0h
1j
0g
0l
1s
0v
1w
0z
1{
0~
1!!
0$!
1%!
0(!
1)!
0*!
1o
0n
1_
0f
1e
1d
1c
1b
1a
1`
0o
0)!
0%!
0!!
0{
0w
1[
0]
1U
1V
1W
1X
1Y
1Z
0a
0b
0c
0d
0e
0_
18
17
16
15
14
13
12
01
0Y
0X
0W
0V
0U
0[
08
06
05
04
03
02
#12500
1:
1T
1l
01!
1m
0s
1v
1w
1{
1!!
1%!
1)!
1e
1d
1c
1b
1a
0`
0w
1z
1U
1V
1W
1X
1Y
0Z
0a
0{
1~
07
16
15
14
13
12
0Y
0b
0!!
1$!
06
0X
0c
0%!
1(!
05
0W
0d
0)!
1*!
04
0V
1f
0e
03
1]
0U
11
02
#15000
0:
1(
10
0T
1K
1S
1h
1g
0l
11!
1s
0v
1w
0z
1{
0~
1!!
0$!
1%!
0(!
1)!
0*!
0m
1n
0f
1e
1d
1c
1b
1a
1`
0)!
0%!
0!!
0{
0w
1o
0]
1U
1V
1W
1X
1Y
1Z
1_
0a
0b
0c
0d
0e
01
17
16
15
14
13
12
1[
0Y
0X
0W
0V
0U
18
06
05
04
03
02
#17500
1:
1T
1l
01!
0s
1v
1w
1{
1!!
1%!
1)!
1e
1d
1c
1b
1a
0`
0w
1z
0o
1U
1V
1W
1X
1Y
0Z
0_
0a
0{
1~
07
16
15
14
13
12
0[
0Y
0b
0!!
1$!
08
06
0X
0c
0%!
1(!
05
0W
0d
0)!
1*!
04
0V
1f
0e
03
1]
0U
11
02
#20000
0:
0(
00
0'
0/
1&
1.
0T
0K
0J
1I
0S
0R
1Q
1q
0k
0h
1p
0j
0g
0l
1w
0z
1{
0~
1!!
0$!
1%!
0(!
1)!
0*!
1o
0r
0n
1s
1`
1_
0f
1e
1d
1c
1b
1a
0o
0s
0)!
0%!
0!!
0{
1Z
1[
0]
1U
1V
1W
1X
1Y
0b
0c
0d
0e
0`
0_
18
17
16
15
14
13
12
01
0X
0W
0V
0U
0Z
0[
08
07
05
04
03
02
#22500
1:
1T
1l
11!
1m
1s
0v
0w
1z
1{
1!!
1%!
1)!
1e
1d
1c
1b
0a
1`
0{
1~
1w
0z
1r
1U
1V
1W
1X
0Y
1Z
1a
0b
0s
1v
1{
0~
0!!
1$!
17
06
15
14
13
12
1Y
0X
0c
1b
0`
0%!
1(!
1!!
0$!
0w
1z
16
05
0W
1X
0Z
0a
1c
0d
0{
1~
1%!
0(!
0)!
1*!
07
15
04
0Y
1W
0V
1f
0e
1d
0b
1)!
0*!
0!!
1$!
06
14
03
1]
0U
1V
0X
0c
0f
1e
0%!
1(!
11
05
13
02
0W
0]
1U
0d
0)!
1*!
04
12
01
0V
1f
0e
03
1]
0U
11
02
#25000
0:
1(
10
0T
1K
1S
1h
1g
0l
01!
1s
1w
0z
1{
0~
1!!
0$!
1%!
0(!
1)!
0*!
0m
1n
0f
1e
1d
1c
1b
1a
1`
0)!
0%!
0!!
0{
1o
0r
0]
1U
1V
1W
1X
1Y
1Z
1_
0b
0c
0d
0e
0s
01
17
16
15
14
13
12
1[
0X
0W
0V
0U
0`
18
05
04
03
02
0Z
07
#27500
1:
1T
1l
11!
1s
0v
0w
1z
1{
1!!
1%!
1)!
1e
1d
1c
1b
0a
1`
0{
1~
1w
0z
0o
1r
1U
1V
1W
1X
0Y
1Z
0_
1a
0b
0s
1v
1{
0~
0!!
1$!
17
06
15
14
13
12
0[
1Y
0X
0c
1b
0`
0%!
1(!
1!!
0$!
0w
1z
08
16
05
0W
1X
0Z
0a
1c
0d
0{
1~
1%!
0(!
0)!
1*!
07
15
04
0Y
1W
0V
1f
0e
1d
0b
1)!
0*!
0!!
1$!
06
14
03
1]
0U
1V
0X
0c
0f
1e
0%!
1(!
11
05
13
02
0W
0]
1U
0d
0)!
1*!
04
12
01
0V
1f
0e
03
1]
0U
11
02
#30000
0:
0(
00
1'
1/
0T
0K
1J
0S
1R
1k
0h
1j
0g
0l
1s
1w
0z
1{
0~
1!!
0$!
1%!
0(!
1)!
0*!
1o
0n
1_
0f
1e
1d
1c
1b
1a
1`
0o
0)!
0%!
0!!
0{
1[
0]
1U
1V
1W
1X
1Y
1Z
0b
0c
0d
0e
0_
18
17
16
15
14
13
12
01
0X
0W
0V
0U
0[
08
05
04
03
02
#32500
1:
1T
1l
01!
1m
0s
0w
1z
1{
1!!
1%!
1)!
1e
1d
1c
1b
0a
0`
0{
1~
1U
1V
1W
1X
0Y
0Z
0b
0!!
1$!
07
06
15
14
13
12
0X
0c
0%!
1(!
05
0W
0d
0)!
1*!
04
0V
1f
0e
03
1]
0U
11
02
#35000
0:
1(
10
0T
1K
1S
1h
1g
0l
11!
1s
1w
0z
1{
0~
1!!
0$!
1%!
0(!
1)!
0*!
0m
1n
0f
1e
1d
1c
1b
1a
1`
0)!
0%!
0!!
0{
1o
0]
1U
1V
1W
1X
1Y
1Z
1_
0b
0c
0d
0e
01
17
16
15
14
13
12
1[
0X
0W
0V
0U
18
05
04
03
02
#37500
1:
1T
1l
01!
0s
0w
1z
1{
1!!
1%!
1)!
1e
1d
1c
1b
0a
0`
0{
1~
0o
1U
1V
1W
1X
0Y
0Z
0_
0b
0!!
1$!
07
06
15
14
13
12
0[
0X
0c
0%!
1(!
08
05
0W
0d
0)!
1*!
04
0V
1f
0e
03
1]
0U
11
02
#40000
0:
0(
00
0'
0/
0&
0.
1%
1-
0T
0K
0J
0I
1H
0S
0R
0Q
1P
1u
0q
0k
0h
1t
0p
0j
0g
0l
1{
0~
1!!
0$!
1%!
0(!
1)!
0*!
1o
0r
0n
1s
0v
1w
1a
1`
1_
0f
1e
1d
1c
1b
0w
0o
0s
0)!
0%!
0!!
1Y
1Z
1[
0]
1U
1V
1W
1X
0c
0d
0e
0`
0_
0a
18
17
16
15
14
13
12
01
0W
0V
0U
0Z
0[
0Y
08
07
06
04
03
02
#42500
1:
1T
1l
11!
1m
1s
1w
0z
0{
1~
1!!
1%!
1)!
1e
1d
1c
0b
1a
1`
0!!
1$!
1{
0~
1r
1U
1V
1W
0X
1Y
1Z
1b
0c
0s
1v
1!!
0$!
0%!
1(!
17
16
05
14
13
12
1X
0W
0d
1c
0`
0)!
1*!
1%!
0(!
0w
1z
15
04
0V
1W
0Z
0a
1d
1f
0e
0{
1~
1)!
0*!
07
14
03
0Y
1V
1]
0U
0f
1e
0b
0!!
1$!
06
13
02
11
0]
1U
0X
0c
0%!
1(!
01
05
12
0W
0d
0)!
1*!
04
0V
1f
0e
03
1]
0U
11
02
#45000
0:
1(
10
0T
1K
1S
1h
1g
0l
01!
1s
0v
1w
1{
0~
1!!
0$!
1%!
0(!
1)!
0*!
0m
1n
0f
1e
1d
1c
1b
1a
1`
0)!
0%!
0!!
0w
1o
0r
0]
1U
1V
1W
1X
1Y
1Z
1_
0a
0c
0d
0e
0s
01
17
16
15
14
13
12
1[
0Y
0W
0V
0U
0`
18
06
04
03
02
0Z
07
#47500
1:
1T
1l
11!
1s
1w
0z
0{
1~
1!!
1%!
1)!
1e
1d
1c
0b
1a
1`
0!!
1$!
1{
0~
0o
1r
1U
1V
1W
0X
1Y
1Z
0_
1b
0c
0s
1v
1!!
0$!
0%!
1(!
17
16
05
14
13
12
0[
1X
0W
0d
1c
0`
0)!
1*!
1%!
0(!
0w
1z
08
15
04
0V
1W
0Z
0a
1d
1f
0e
0{
1~
1)!
0*!
07
14
03
0Y
1V
1]
0U
0f
1e
0b
0!!
1$!
06
13
02
11
0]
1U
0X
0c
0%!
1(!
01
05
12
0W
0d
0)!
1*!
04
0V
1f
0e
03
1]
0U
11
02
#50000
0:
0(
00
1'
1/
0T
0K
1J
0S
1R
1k
0h
1j
0g
0l
1s
0v
1w
1{
0~
1!!
0$!
1%!
0(!
1)!
0*!
1o
0n
1_
0f
1e
1d
1c
1b
1a
1`
0o
0)!
0%!
0!!
0w
1[
0]
1U
1V
1W
1X
1Y
1Z
0a
0c
0d
0e
0_
18
17
16
15
14
13
12
01
0Y
0W
0V
0U
0[
08
06
04
03
02
#52500
1:
1T
1l
01!
1m
0s
1v
1w
0z
0{
1~
1!!
1%!
1)!
1e
1d
1c
0b
1a
0`
0!!
1$!
1{
0~
0w
1z
1U
1V
1W
0X
1Y
0Z
0a
1b
0c
0{
1~
1!!
0$!
0%!
1(!
07
16
05
14
13
12
0Y
1X
0W
0d
1c
0b
0)!
1*!
1%!
0(!
0!!
1$!
06
15
04
0V
1W
0X
0c
1d
1f
0e
0%!
1(!
1)!
0*!
05
14
03
0W
1V
1]
0U
0f
1e
0d
0)!
1*!
04
13
02
11
0]
1U
0V
1f
0e
01
03
12
1]
0U
11
02
#55000
0:
1(
10
0T
1K
1S
1h
1g
0l
11!
1s
0v
1w
1{
0~
1!!
0$!
1%!
0(!
1)!
0*!
0m
1n
0f
1e
1d
1c
1b
1a
1`
0)!
0%!
0!!
0w
1o
0]
1U
1V
1W
1X
1Y
1Z
1_
0a
0c
0d
0e
01
17
16
15
14
13
12
1[
0Y
0W
0V
0U
18
06
04
03
02
#57500
1:
1T
1l
01!
0s
1v
1w
0z
0{
1~
1!!
1%!
1)!
1e
1d
1c
0b
1a
0`
0!!
1$!
1{
0~
0w
1z
0o
1U
1V
1W
0X
1Y
0Z
0_
0a
1b
0c
0{
1~
1!!
0$!
0%!
1(!
07
16
05
14
13
12
0[
0Y
1X
0W
0d
1c
0b
0)!
1*!
1%!
0(!
0!!
1$!
08
06
15
04
0V
1W
0X
0c
1d
1f
0e
0%!
1(!
1)!
0*!
05
14
03
0W
1V
1]
0U
0f
1e
0d
0)!
1*!
04
13
02
11
0]
1U
0V
1f
0e
01
03
12
1]
0U
11
02
#60000
0:
0(
00
0'
0/
1&
1.
0T
0K
0J
1I
0S
0R
1Q
1q
0k
0h
1p
0j
0g
0l
1w
1{
0~
1!!
0$!
1%!
0(!
1)!
0*!
1o
0r
0n
1s
1`
1_
0f
1e
1d
1c
1b
1a
0o
0s
0)!
0%!
0!!
1Z
1[
0]
1U
1V
1W
1X
1Y
0c
0d
0e
0`
0_
18
17
16
15
14
13
12
01
0W
0V
0U
0Z
0[
08
07
04
03
02
#62500
1:
1T
1l
11!
1m
1s
0v
0w
0{
1~
1!!
1%!
1)!
1e
1d
1c
0b
0a
1`
0!!
1$!
1w
0z
1r
1U
1V
1W
0X
0Y
1Z
1a
0c
0s
1v
1{
0~
0%!
1(!
17
06
05
14
13
12
1Y
0W
0d
1b
0`
0)!
1*!
1!!
0$!
0w
1z
16
04
0V
1X
0Z
0a
1c
1f
0e
0{
1~
1%!
0(!
07
15
03
0Y
1W
1]
0U
1d
0b
1)!
0*!
0!!
1$!
06
14
02
11
1V
0X
0c
0f
1e
0%!
1(!
05
13
0W
0]
1U
0d
0)!
1*!
04
12
01
0V
1f
0e
03
1]
0U
11
02
#65000
0:
1(
10
0T
1K
1S
1h
1g
0l
01!
1s
1w
1{
0~
1!!
0$!
1%!
0(!
1)!
0*!
0m
1n
0f
1e
1d
1c
1b
1a
1`
0)!
0%!
0!!
1o
0r
0]
1U
1V
1W
1X
1Y
1Z
1_
0c
0d
0e
0s
01
17
16
15
14
13
12
1[
0W
0V
0U
0`
18
04
03
02
0Z
07
#67500
1:
1T
1l
11!
1s
0v
0w
0{
1~
1!!
1%!
1)!
1e
1d
1c
0b
0a
1`
0!!
1$!
1w
0z
0o
1r
1U
1V
1W
0X
0Y
1Z
0_
1a
0c
0s
1v
1{
0~
0%!
1(!
17
06
05
14
13
12
0[
1Y
0W
0d
1b
0`
0)!
1*!
1!!
0$!
0w
1z
08
16
04
0V
1X
0Z
0a
1c
1f
0e
0{
1~
1%!
0(!
07
15
03
0Y
1W
1]
0U
1d
0b
1)!
0*!
0!!
1$!
06
14
02
11
1V
0X
0c
0f
1e
0%!
1(!
05
13
0W
0]
1U
0d
0)!
1*!
04
12
01
0V
1f
0e
03
1]
0U
11
02
#70000
0:
0(
00
1'
1/
0T
0K
1J
0S
1R
1k
0h
1j
0g
0l
1s
1w
1{
0~
1!!
0$!
1%!
0(!
1)!
0*!
1o
0n
1_
0f
1e
1d
1c
1b
1a
1`
0o
0)!
0%!
0!!
1[
0]
1U
1V
1W
1X
1Y
1Z
0c
0d
0e
0_
18
17
16
15
14
13
12
01
0W
0V
0U
0[
08
04
03
02
#72500
1:
1T
1l
01!
1m
0s
0w
0{
1~
1!!
1%!
1)!
1e
1d
1c
0b
0a
0`
0!!
1$!
1U
1V
1W
0X
0Y
0Z
0c
0%!
1(!
07
06
05
14
13
12
0W
0d
0)!
1*!
04
0V
1f
0e
03
1]
0U
11
02
#75000
0:
1(
10
0T
1K
1S
1h
1g
0l
11!
1s
1w
1{
0~
1!!
0$!
1%!
0(!
1)!
0*!
0m
1n
0f
1e
1d
1c
1b
1a
1`
0)!
0%!
0!!
1o
0]
1U
1V
1W
1X
1Y
1Z
1_
0c
0d
0e
01
17
16
15
14
13
12
1[
0W
0V
0U
18
04
03
02
#77500
1:
1T
1l
01!
0s
0w
0{
1~
1!!
1%!
1)!
1e
1d
1c
0b
0a
0`
0!!
1$!
0o
1U
1V
1W
0X
0Y
0Z
0_
0c
0%!
1(!
07
06
05
14
13
12
0[
0W
0d
0)!
1*!
08
04
0V
1f
0e
03
1]
0U
11
02
#80000
0:
0(
00
0'
0/
0&
0.
0%
0-
1$
1,
0T
0K
0J
0I
0H
1G
0S
0R
0Q
0P
1O
1y
0u
0q
0k
0h
1x
0t
0p
0j
0g
0l
1!!
0$!
1%!
0(!
1)!
0*!
1o
0r
0n
1s
0v
1w
0z
1{
1b
1a
1`
1_
0f
1e
1d
1c
0{
0w
0o
0s
0)!
0%!
1X
1Y
1Z
1[
0]
1U
1V
1W
0d
0e
0`
0_
0a
0b
18
17
16
15
14
13
12
01
0V
0U
0Z
0[
0Y
0X
08
07
06
05
03
02
#82500
1:
1T
1l
11!
1m
1s
1w
1{
0~
0!!
1$!
1%!
1)!
1e
1d
0c
1b
1a
1`
0%!
1(!
1!!
0$!
1r
1U
1V
0W
1X
1Y
1Z
1c
0d
0s
1v
1%!
0(!
0)!
1*!
17
16
15
04
13
12
1W
0V
1f
0e
1d
0`
1)!
0*!
0w
1z
14
03
1]
0U
1V
0Z
0a
0f
1e
0{
1~
11
07
13
02
0Y
0]
1U
0b
0!!
1$!
06
12
01
0X
0c
0%!
1(!
05
0W
0d
0)!
1*!
04
0V
1f
0e
03
1]
0U
11
02
#85000
0:
1(
10
0T
1K
1S
1h
1g
0l
01!
1s
0v
1w
0z
1{
1!!
0$!
1%!
0(!
1)!
0*!
0m
1n
0f
1e
1d
1c
1b
1a
1`
0)!
0%!
0{
0w
1o
0r
0]
1U
1V
1W
1X
1Y
1Z
1_
0a
0b
0d
0e
0s
01
17
16
15
14
13
12
1[
0Y
0X
0V
0U
0`
18
06
05
03
02
0Z
07
#87500
1:
1T
1l
11!
1s
1w
1{
0~
0!!
1$!
1%!
1)!
1e
1d
0c
1b
1a
1`
0%!
1(!
1!!
0$!
0o
1r
1U
1V
0W
1X
1Y
1Z
0_
1c
0d
0s
1v
1%!
0(!
0)!
1*!
17
16
15
04
13
12
0[
1W
0V
1f
0e
1d
0`
1)!
0*!
0w
1z
08
14
03
1]
0U
1V
0Z
0a
0f
1e
0{
1~
11
07
13
02
0Y
0]
1U
0b
0!!
1$!
06
12
01
0X
0c
0%!
1(!
05
0W
0d
0)!
1*!
04
0V
1f
0e
03
1]
0U
11
02
#90000
0:
0(
00
1'
1/
0T
0K
1J
0S
1R
1k
0h
1j
0g
0l
1s
0v
1w
0z
1{
1!!
0$!
1%!
0(!
1)!
0*!
1o
0n
1_
0f
1e
1d
1c
1b
1a
1`
0o
0)!
0%!
0{
0w
1[
0]
1U
1V
1W
1X
1Y
1Z
0a
0b
0d
0e
0_
18
17
16
15
14
13
12
01
0Y
0X
0V
0U
0[
08
06
05
03
02
#92500
1:
1T
1l
01!
1m
0s
1v
1w
1{
0~
0!!
1$!
1%!
1)!
1e
1d
0c
1b
1a
0`
0%!
1(!
1!!
0$!
0w
1z
1U
1V
0W
1X
1Y
0Z
0a
1c
0d
0{
1~
1%!
0(!
0)!
1*!
07
16
15
04
13
12
0Y
1W
0V
1f
0e
1d
0b
1)!
0*!
0!!
1$!
06
14
03
1]
0U
1V
0X
0c
0f
1e
0%!
1(!
11
05
13
02
0W
0]
1U
0d
0)!
1*!
04
12
01
0V
1f
0e
03
1]
0U
11
02
#95000
0:
1(
10
0T
1K
1S
1h
1g
0l
11!
1s
0v
1w
0z
1{
1!!
0$!
1%!
0(!
1)!
0*!
0m
1n
0f
1e
1d
1c
1b
1a
1`
0)!
0%!
0{
0w
1o
0]
1U
1V
1W
1X
1Y
1Z
1_
0a
0b
0d
0e
01
17
16
15
14
13
12
1[
0Y
0X
0V
0U
18
06
05
03
02
#97500
1:
1T
1l
01!
0s
1v
1w
1{
0~
0!!
1$!
1%!
1)!
1e
1d
0c
1b
1a
0`
0%!
1(!
1!!
0$!
0w
1z
0o
1U
1V
0W
1X
1Y
0Z
0_
0a
1c
0d
0{
1~
1%!
0(!
0)!
1*!
07
16
15
04
13
12
0[
0Y
1W
0V
1f
0e
1d
0b
1)!
0*!
0!!
1$!
08
06
14
03
1]
0U
1V
0X
0c
0f
1e
0%!
1(!
11
05
13
02
0W
0]
1U
0d
0)!
1*!
04
12
01
0V
1f
0e
03
1]
0U
11
02
#100000
0:
0(
00
0'
0/
1&
1.
0T
0K
0J
1I
0S
0R
1Q
1q
0k
0h
1p
0j
0g
0l
1w
0z
1{
1!!
0$!
1%!
0(!
1)!
0*!
1o
0r
0n
1s
1`
1_
0f
1e
1d
1c
1b
1a
0o
0s
0)!
0%!
0{
1Z
1[
0]
1U
1V
1W
1X
1Y
0b
0d
0e
0`
0_
18
17
16
15
14
13
12
01
0X
0V
0U
0Z
0[
08
07
05
03
02
#102500
1:
1T
1l
11!
1m
1s
0v
0w
1z
1{
0~
0!!
1$!
1%!
1)!
1e
1d
0c
1b
0a
1`
0%!
1(!
1!!
0$!
0{
1~
1w
0z
1r
1U
1V
0W
1X
0Y
1Z
1a
0b
1c
0d
0s
1v
1{
0~
0!!
1$!
1%!
0(!
0)!
1*!
17
06
15
04
13
12
1Y
0X
1W
0V
1f
0e
1d
0c
1b
0`
1)!
0*!
0%!
1(!
1!!
0$!
0w
1z
16
05
14
03
1]
0U
1V
0W
1X
0Z
0a
1c
0d
0f
1e
0{
1~
1%!
0(!
0)!
1*!
11
07
15
04
13
02
0Y
1W
0V
0]
1U
1f
0e
1d
0b
1)!
0*!
0!!
1$!
06
14
03
12
01
1]
0U
1V
0X
0c
0f
1e
0%!
1(!
11
05
13
02
0W
0]
1U
0d
0)!
1*!
04
12
01
0V
1f
0e
03
1]
0U
11
02
#105000
0:
1(
10
0T
1K
1S
1h
1g
0l
01!
1s
1w
0z
1{
1!!
0$!
1%!
0(!
1)!
0*!
0m
1n
0f
1e
1d
1c
1b
1a
1`
0)!
0%!
0{
1o
0r
0]
1U
1V
1W
1X
1Y
1Z
1_
0b
0d
0e
0s
01
17
16
15
14
13
12
1[
0X
0V
0U
0`
18
05
03
02
0Z
07
#107500
1:
1T
1l
11!
1s
0v
0w
1z
1{
0~
0!!
1$!
1%!
1)!
1e
1d
0c
1b
0a
1`
0%!
1(!
1!!
0$!
0{
1~
1w
0z
0o
1r
1U
1V
0W
1X
0Y
1Z
0_
1a
0b
1c
0d
0s
1v
1{
0~
0!!
1$!
1%!
0(!
0)!
1*!
17
06
15
04
13
12
0[
1Y
0X
1W
0V
1f
0e
1d
0c
1b
0`
1)!
0*!
0%!
1(!
1!!
0$!
0w
1z
08
16
05
14
03
1]
0U
1V
0W
1X
0Z
0a
1c
0d
0f
1e
0{
1~
1%!
0(!
0)!
1*!
11
07
15
04
13
02
0Y
1W
0V
0]
1U
1f
0e
1d
0b
1)!
0*!
0!!
1$!
06
14
03
12
01
1]
0U
1V
0X
0c
0f
1e
0%!
1(!
11
05
13
02
0W
0]
1U
0d
0)!
1*!
04
12
01
0V
1f
0e
03
1]
0U
11
02
#110000
0:
0(
00
1'
1/
0T
0K
1J
0S
1R
1k
0h
1j
0g
0l
1s
1w
0z
1{
1!!
0$!
1%!
0(!
1)!
0*!
1o
0n
1_
0f
1e
1d
1c
1b
1a
1`
0o
0)!
0%!
0{
1[
0]
1U
1V
1W
1X
1Y
1Z
0b
0d
0e
0_
18
17
16
15
14
13
12
01
0X
0V
0U
0[
08
05
03
02
#112500
1:
1T
1l
01!
1m
0s
0w
1z
1{
0~
0!!
1$!
1%!
1)!
1e
1d
0c
1b
0a
0`
0%!
1(!
1!!
0$!
0{
1~
1U
1V
0W
1X
0Y
0Z
0b
1c
0d
0!!
1$!
1%!
0(!
0)!
1*!
07
06
15
04
13
12
0X
1W
0V
1f
0e
1d
0c
1)!
0*!
0%!
1(!
05
14
03
1]
0U
1V
0W
0d
0f
1e
0)!
1*!
11
04
13
02
0V
0]
1U
1f
0e
03
12
01
1]
0U
11
02
#115000
0:
1(
10
0T
1K
1S
1h
1g
0l
11!
1s
1w
0z
1{
1!!
0$!
1%!
0(!
1)!
0*!
0m
1n
0f
1e
1d
1c
1b
1a
1`
0)!
0%!
0{
1o
0]
1U
1V
1W
1X
1Y
1Z
1_
0b
0d
0e
01
17
16
15
14
13
12
1[
0X
0V
0U
18
05
03
02
#117500
1:
1T
1l
01!
0s
0w
1z
1{
0~
0!!
1$!
1%!
1)!
1e
1d
0c
1b
0a
0`
0%!
1(!
1!!
0$!
0{
1~
0o
1U
1V
0W
1X
0Y
0Z
0_
0b
1c
0d
0!!
1$!
1%!
0(!
0)!
1*!
07
06
15
04
13
12
0[
0X
1W
0V
1f
0e
1d
0c
1)!
0*!
0%!
1(!
08
05
14
03
1]
0U
1V
0W
0d
0f
1e
0)!
1*!
11
04
13
02
0V
0]
1U
1f
0e
03
12
01
1]
0U
11
02
